[
  {
    "reference": "D2A38E99-B344-41AF-B145-00AD0CB7075F",
    "type": {
      "substances": {
        "ethylene-glycol": 88.04533641593329,
        "acetonitrile": 47.320535801237725,
        "water": 42.99655321358449,
        "propane-1-2-diol": 39.07118283825381,
        "1,4-cyclohexadiene": 25.773430147184843,
        "diethylether": 20.404249840163825,
        "3-cyclohexyl-1-propyne": 15.885146705217071,
        "benzaldehyde": 13.934138623230382,
        "eugenol": 8.004043976997083,
        "toluene": 3.9207008786436415,
        "2,3-dimethylbutane": 0.6778213657203971,
        "pentadec-1-ene": 0.19423940289013228
      },
      "moieties": {
        "HOH": 4.777394801509388,
        "COH": 4.273021149428749,
        "C(X)4": 0.43833811580369747,
        "HC=O": 0.13658345116078818,
        "CH": 0.6417371537324519,
        "CH2": 4.797420266113251,
        "CH3": 1.9159653372050955,
        "C=CH": 0.10983511141403432,
        "C=CH2": 0.052385915325086733,
        "ArH": 1.022469715082272,
        "COC": 0.2460228489764675,
        "CN": 0.9060643395803375
      }
    }
  }
]